…
Then a user friendly table is created to show the start baker or the
winner of each episode in Seasons 5 to 10.

``` r
user_friendly_table=joining|> 
  filter(series>=5 & series <= 10 & result %in% c("Star Baker", "Series Winner")) |>
  select(baker_name,series,episode,result)
  
  
```

``` r
user_friendly_table
## # A tibble: 60 × 4
##    baker_name        series episode result       
##    <chr>              <dbl>   <dbl> <chr>        
##  1 Nancy Birtwhistle      5       1 Star Baker   
##  2 Richard Burr           5       2 Star Baker   
##  3 Luis Troyano           5       3 Star Baker   
##  4 Richard Burr           5       4 Star Baker   
##  5 Kate Henry             5       5 Star Baker   
##  6 Chetna Makan           5       6 Star Baker   
##  7 Richard Burr           5       7 Star Baker   
##  8 Richard Burr           5       8 Star Baker   
##  9 Richard Burr           5       9 Star Baker   
## 10 Nancy Birtwhistle      5      10 Series Winner
## # ℹ 50 more rows
```
…
